<?xml version="1.0" encoding="utf-8"?>
<!-- Generator: Adobe Illustrator 25.2.3, SVG Export Plug-In . SVG Version: 6.00 Build 0)  -->
<svg version="1.1" id="Layer_1" xmlns="http://www.w3.org/2000/svg" xmlns:xlink="http://www.w3.org/1999/xlink" x="0px" y="0px"
	 viewBox="0 0 443.03 179.49" style="enable-background:new 0 0 443.03 179.49;" xml:space="preserve">
<style type="text/css">
	.st0{fill:#FFFFFF;}
	.st1{fill:#FE0117;}
	.st2{fill:#0E41A4;}
	.st3{fill:#0E42A4;}
	.st4{fill:#FE0217;}
	.st5{fill:#1245A5;}
	.st6{fill:#1244A5;}
	.st7{fill:#1144A5;}
	.st8{fill:#1043A5;}
	.st9{fill:#FE0218;}
	.st10{fill:#FE0319;}
	.st11{fill:#FE051A;}
	.st12{fill:#FE071D;}
	.st13{fill:#FE0B20;}
	.st14{fill:#0D41A4;}
</style>
<path class="st0" d="M335.56,140.16c-11.67,0-23.34-0.06-35.02,0.03c-4.9,0.04-9.43-1.17-13.74-3.36c-0.69-0.35-0.73-0.1-0.75,0.46
	c-0.09,2.15,0.98,4.08,0.95,6.29c-0.08,6.09-4.67,11.79-11.22,11.14c-1.43-0.14-2.89,0.08-4.31-0.05c-1.56-0.14-1.69,0.63-1.55,1.85
	c0.73,6.1-3.54,12.18-9.32,12.69c-5.1,0.45-10.24,0.34-15.37,0.42c-2.61,0.04-5.23-0.12-7.84-0.05c-2.86,0.08-5.11,1.9-7.59,2.99
	c-10.85,4.76-22.19,6.99-33.99,6.91c-15.52-0.11-30.37-3.37-44.25-10.36c-9.71-4.89-18.32-11.43-25.5-19.62
	c-6.97-7.95-12.63-16.75-15.96-26.9c-0.13-0.39-0.39-0.74-0.6-1.11c-0.27,0.33-0.58,0.64-0.79,1c-2.9,5.02-6.64,9.3-11.4,12.61
	c-4.13,2.88-8.78,4.32-13.82,4.62c-7.18,0.44-13.95-0.76-20.16-4.54c-0.45-0.27-0.74-0.08-1.08,0.12
	c-6.21,3.6-12.83,4.93-19.98,3.97c-5.21-0.7-10.15-2.17-14.36-5.26c-6.95-5.11-11.47-11.91-12.98-20.54
	C12.24,98.11,8.44,82.96,5.2,67.7c-1.7-7.98-3.41-15.96-5.15-23.93c-0.26-1.18,0.51-0.9,1.09-0.9c16.75-0.01,33.5,0.03,50.25-0.03
	c3.4-0.01,6.63-1.44,10.08-1.48c3.36-0.04,6.69,0.09,9.88,1.06c1.88,0.58,3.75,0.7,5.64,0.7c12.51,0.03,25.02-0.01,37.53,0.06
	c1.22,0.01,1.82-0.44,2.43-1.37c7.91-12.07,18.16-21.65,30.54-29.08c8.1-4.86,16.8-8.09,25.88-10.3c11.13-2.7,22.41-3,33.79-1.6
	c5.73,0.71,11.28,2.07,16.73,3.71c6.28,1.89,12.19,4.79,17.91,8.03c7.93,4.5,14.97,10.14,21.16,16.77
	c4.04,4.32,7.63,9.06,10.81,14.07c0.46,0.73,0.89,0.95,1.69,0.95c17.07-0.02,34.14,0.02,51.21-0.06c1.77-0.01,2.35,0.5,2.07,2.14
	c-0.36,2.11,0.45,2.19,2.05,1.27c4.58-2.64,9.59-3.5,14.8-3.49c10.31,0.01,20.63-0.02,30.94,0.01c8.37,0.02,16.67-0.6,25.01-1.41
	c10.57-1.02,20.75,0.99,30.17,6.22c2.63,1.46,5.42,2.64,8.17,3.89c0.82,0.37,0.79,0.97,0.79,1.66c-0.01,10.46,0.05,20.93-0.04,31.39
	c-0.02,2.84,1.34,5.29,1.74,8c1.2,8.21,0.97,16.21-2.43,23.98c-1.83,4.18-4.19,8.07-7.36,11.18c-5.65,5.55-12.48,9.19-20.36,10.87
	c-10,2.13-19.85,1.61-29.6-1.12c-2.62-0.73-5.24-1.68-7.54-3.26c-0.84-0.58-1.27-0.63-1.27,0.65c0.02,3.87-0.02,3.87-3.96,3.87
	C358.42,140.16,346.99,140.16,335.56,140.16z"/>
<path class="st1" d="M335.56,140.16c-11.67,0-23.34-0.06-35.02,0.03c-4.9,0.04-9.43-1.17-13.74-3.36c-0.69-0.35-0.73-0.1-0.75,0.46
	c-0.09,2.15,0.98,4.08,0.95,6.29c-0.08,6.09-4.67,11.79-11.22,11.14c-1.43-0.14-2.89,0.08-4.31-0.05c-1.56-0.14-1.69,0.63-1.55,1.85
	c0.73,6.1-3.54,12.18-9.32,12.69c-5.1,0.45-10.24,0.34-15.37,0.42c-2.61,0.04-5.23-0.12-7.84-0.05c-2.86,0.08-5.11,1.9-7.59,2.99
	c-10.85,4.76-22.19,6.99-33.99,6.91c-15.52-0.11-30.37-3.37-44.25-10.36c-9.71-4.89-18.32-11.43-25.5-19.62
	c-6.97-7.95-12.63-16.75-15.96-26.9c-0.13-0.39-0.39-0.74-0.6-1.11c-0.27,0.33-0.58,0.64-0.79,1c-2.9,5.02-6.64,9.3-11.4,12.61
	c-4.13,2.88-8.78,4.32-13.82,4.62c-7.18,0.44-13.95-0.76-20.16-4.54c-0.45-0.27-0.74-0.08-1.08,0.12
	c-6.21,3.6-12.83,4.93-19.98,3.97c-5.21-0.7-10.15-2.17-14.36-5.26c-6.95-5.11-11.47-11.91-12.98-20.54
	C12.24,98.11,8.44,82.96,5.2,67.7c-1.7-7.98-3.41-15.96-5.15-23.93c-0.26-1.18,0.51-0.9,1.09-0.9c16.75-0.01,33.5,0.03,50.25-0.03
	c3.4-0.01,6.63-1.44,10.08-1.48c3.36-0.04,6.69,0.09,9.88,1.06c1.88,0.58,3.75,0.7,5.64,0.7c12.51,0.03,25.02-0.01,37.53,0.06
	c1.22,0.01,1.82-0.44,2.43-1.37c7.91-12.07,18.16-21.65,30.54-29.08c8.1-4.86,16.8-8.09,25.88-10.3c11.13-2.7,22.41-3,33.79-1.6
	c5.73,0.71,11.28,2.07,16.73,3.71c6.28,1.89,12.19,4.79,17.91,8.03c7.93,4.5,14.97,10.14,21.16,16.77
	c4.04,4.32,7.63,9.06,10.81,14.07c0.46,0.73,0.89,0.95,1.69,0.95c17.07-0.02,34.14,0.02,51.21-0.06c1.77-0.01,2.35,0.5,2.07,2.14
	c-0.36,2.11,0.45,2.19,2.05,1.27c4.58-2.64,9.59-3.5,14.8-3.49c10.31,0.01,20.63-0.02,30.94,0.01c8.37,0.02,16.67-0.6,25.01-1.41
	c10.57-1.02,20.75,0.99,30.17,6.22c2.63,1.46,5.42,2.64,8.17,3.89c0.82,0.37,0.79,0.97,0.79,1.66c-0.01,10.46,0.05,20.93-0.04,31.39
	c-0.02,2.84,1.34,5.29,1.74,8c1.2,8.21,0.97,16.21-2.43,23.98c-1.83,4.18-4.19,8.07-7.36,11.18c-5.65,5.55-12.48,9.19-20.36,10.87
	c-10,2.13-19.85,1.61-29.6-1.12c-2.62-0.73-5.24-1.68-7.54-3.26c-0.84-0.58-1.27-0.63-1.27,0.65c0.02,3.87-0.02,3.87-3.96,3.87
	C358.42,140.16,346.99,140.16,335.56,140.16z M247.69,164.46c2.76-0.05,5.52-0.38,8.24-0.33c6.19,0.11,10.06-5.24,7.82-11.24
	c-0.69-1.84,0.25-3.07,2.17-3.07c2.68,0,5.36,0.01,8.03,0c5.04-0.01,8.44-4.24,7.46-9.21c-0.33-1.65-0.84-3.18-0.41-5.05
	c0.99-4.36-1.38-7.7-5.66-9.04c-2.46-0.76-4.9-0.23-7.35-0.25c-0.95-0.01-1.2-0.21-0.79-1.17c1.43-3.32,2.78-6.66,3.75-10.16
	c2.43-8.81,3.8-17.79,3.11-26.89c-1.02-13.39-4.59-26-11.75-37.6c-6.07-9.84-14.03-17.74-23.46-24.09
	c-10.85-7.3-23.01-11.42-36.08-12.75c-7.54-0.76-15.07-0.54-22.46,0.89c-9.96,1.93-19.41,5.35-28.03,10.89
	c-8.96,5.75-16.63,12.84-22.68,21.56c-5.71,8.22-9.85,17.2-11.96,27.07c-1.07,4.99-2,9.99-2,15.1c0,6.36,0.22,12.72,0.35,19.08
	c0.01,0.68-0.1,1.3-0.33,1.96c-0.71,2.02-1.55,4.09-0.41,6.21c0.51,0.95,0.56,1.81,0.21,2.83c-0.76,2.25-0.03,4.3,1.2,6.18
	c2.1,3.23,5.37,3.67,8.83,3.54c0.97-0.04,1.66,0.21,2.18,1.09c3.75,6.33,8.92,11.44,14.29,16.35c5.71,5.23,12.21,9.24,19.22,12.48
	c9.45,4.36,19.45,6.53,29.75,7.21c7.86,0.53,15.67-0.33,23.34-2.22c1.99-0.49,4.08-1.73,5.94-1.44
	C229.33,163.81,238.51,164.01,247.69,164.46z M327.42,126.58c10.43,0,20.86-0.02,31.3,0.03c1.12,0,1.49-0.21,1.47-1.41
	c-0.07-5.63-0.03-11.26-0.04-16.89c0-0.66,0.01-1.15,0.92-1.14c4.78,0.03,9.57,0.03,14.35-0.01c0.89-0.01,1.16,0.24,1.15,1.14
	c-0.04,3.94-0.01,7.88,0.01,11.82c0,0.58-0.02,1.16,0.67,1.53c3.05,1.62,5.94,3.59,9.32,4.51c6.38,1.74,12.79,2.43,19.44,1.42
	c9.41-1.44,17.06-5.21,21.22-14.29c2.9-6.33,3.37-12.84,1.24-19.48c-0.6-1.88-1.39-3.63-1.36-5.72c0.11-8.43,0.05-16.85,0.05-25.28
	c0-0.56,0.09-1.13-0.58-1.43c-2.46-1.11-4.82-2.59-7.4-3.3c-6.34-1.74-12.76-2.69-19.45-1.79c-8.07,1.08-15.03,3.93-20.25,10.38
	c-0.11,0.14-0.3,0.21-0.45,0.31c-0.06-0.27-0.16-0.53-0.16-0.8c-0.01-2.56-0.03-5.11,0.01-7.67c0.01-0.75-0.18-1.05-1-1.04
	c-11.17,0.1-22.35-0.03-33.53,0.21c-8.81,0.19-15.36,6.46-15.58,14.95c-0.2,7.74-0.15,15.49-0.16,23.23c0,1.01-0.3,1.28-1.29,1.27
	c-3.56-0.06-7.12-0.06-10.67,0c-1.03,0.02-1.24-0.29-1.24-1.27c-0.01-12.33-0.07-24.66-0.08-36.99c0-0.97-0.27-1.17-1.2-1.17
	c-9.63,0.03-19.27,0.04-28.9-0.01c-1.16-0.01-1.46,0.31-1.45,1.46c0.08,14.85,0.04,29.7,0.18,44.55c0.04,4.57-0.5,9.16,1.16,13.69
	c1.67,4.54,7.46,9.46,12.8,9.28C307.74,126.34,317.58,126.58,327.42,126.58z M31.78,56.12c-4.8,0-9.59,0.02-14.39-0.02
	c-0.77,0-1.03,0.13-0.85,0.97c0.9,4.24,1.72,8.49,2.62,12.73c2.47,11.66,4.97,23.31,7.42,34.98c0.9,4.28,1.58,8.65,3.67,12.55
	c2.93,5.48,7.78,8.07,13.83,8.91c7.92,1.09,15.91-3.51,18.54-10.9c0.1-0.27,0.26-0.52,0.4-0.78c0.17,0.27,0.44,0.51,0.5,0.8
	c0.58,2.6,2.31,4.41,4.01,6.34c5.05,5.75,16.08,6.26,22.45,2.43c5.37-3.23,7.87-8.25,9.09-14.21c3.54-17.34,7.2-34.65,10.88-51.96
	c0.29-1.39-0.06-1.63-1.32-1.62c-8.63,0.03-17.27,0.02-25.9,0.02c-3.63,0-3.63,0-4.39,3.49c-0.16,0.74-0.34,1.48-0.51,2.21
	c-0.05,0.22-0.13,0.43-0.19,0.65c-0.15-0.17-0.32-0.32-0.46-0.5c-1.86-2.45-3.92-4.75-6.81-5.94c-7.68-3.16-16.06-1.94-21.4,5.83
	c-0.11,0.16-0.27,0.27-0.41,0.41c-0.08-0.17-0.2-0.34-0.23-0.52c-0.29-1.52-0.6-3.04-0.83-4.58c-0.14-0.95-0.55-1.33-1.57-1.31
	C41.21,56.15,36.49,56.12,31.78,56.12z"/>
<path class="st2" d="M247.88,125.86c-5.58,0.26-12.58-0.17-19.56-0.96c-0.42-0.05-0.96-0.02-1.11-0.47
	c-0.06-0.18,0.35-0.56,0.59-0.8c5.21-5.16,10.45-10.26,13.55-17.12c1.46-3.24,1.92-6.66,2.1-10.08c0.42-8.14-1.19-15.93-5.07-23.16
	c-2.88-5.36-6.76-9.98-10.85-14.44c-2.58-2.81-5.07-5.7-7.61-8.55c-0.19-0.22-0.48-0.36-0.72-0.53c0,0.25-0.01,0.51-0.01,0.76
	c0.03,1.16,0.03,2.31,0.09,3.47c0.05,0.99-0.33,1.07-1.13,0.66c-2.6-1.36-5.22-2.68-7.89-3.91c-1.81-0.83-2.41-3.18-3.41-4.91
	c-2.47-4.26-5.58-8.02-8.77-11.73c-3.47-4.04-7-8.04-10.5-12.05c-0.3-0.34-0.49-0.83-1.04-0.88c-0.01,0.42-0.04,0.83-0.02,1.24
	c0.11,3.42,0.31,6.85,0.32,10.27c0.01,4.09,0.63,8.2-0.23,12.27c-0.25,1.2-0.62,2.37-0.95,3.55c-0.15,0.53-0.58,0.72-1.09,0.79
	c-2.6,0.33-4.97,1.38-7.33,2.42c-0.9,0.4-1.34,0.26-1.71-0.68c-2.54-6.5-7.11-11.61-11.6-16.76c-1.67-1.92-3.47-3.73-5.22-5.58
	c-0.89-0.95,0.11-1.13,0.61-1.42c6.47-3.75,13.47-6.09,20.77-7.55c12.21-2.44,24.25-1.79,36.22,1.78
	c8.39,2.5,16.21,6.18,23.07,11.46c8.49,6.54,15.63,14.38,20.73,24.05c4.71,8.93,7.77,18.29,8.71,28.28c1,10.7-0.13,21.22-3.9,31.36
	c-1.05,2.83-2.27,5.59-3.36,8.41c-0.26,0.68-0.61,0.87-1.31,0.86C256.6,125.84,252.97,125.86,247.88,125.86z"/>
<path class="st3" d="M120.67,92.83c0.32-18.29,5.72-34.15,17.11-47.87c4.64-5.59,10.01-10.34,15.98-14.43
	c0.41-0.28,0.91-0.62,0.97,0.26c0.41,5.9,1.22,11.83-0.71,17.62c-1.17,3.5-3.62,6.35-5.17,9.65c-2.66,5.69-3.15,11.66-1.88,17.8
	c0.44,2.11,1.26,4.03,2.11,6.01c0.78,1.82,0.38,4.14,0.58,6.23c0.11,1.14,0.36,2.27,0.61,3.39c0.23,1.01-0.13,1.25-1.06,0.99
	c-1.77-0.49-3.55-0.94-5.4-0.98c-4.74-0.12-8.04,2.04-9.76,6.33c-0.47,1.18-1.57,0.62-2.26,0.55c-3.31-0.32-6.59-0.5-9.88,0.2
	c-0.63,0.13-1.03-0.02-1.04-0.85C120.87,95.91,120.73,94.08,120.67,92.83z"/>
<path class="st1" d="M209.25,76.49c0.51,9.4-3.09,17.2-9.19,24.05c-1.66,1.87-3.35,3.72-4.99,5.61c-0.65,0.75-1.06,0.74-1.39-0.23
	c-1.7-4.9-4.97-8.93-7.53-13.35c-4.48-7.74-7.07-15.72-3.86-24.75c1.43-4.03,3.67-7.57,5.77-11.2c3.23-5.59,4.93-11.5,4.61-17.96
	c-0.02-0.46-0.04-1.23,0.17-1.32c0.56-0.24,0.88,0.43,1.18,0.78c3.59,4.11,6.76,8.46,9.3,13.36c2.93,5.64,4.68,11.54,5.46,17.77
	C209.08,71.64,209.1,74.08,209.25,76.49z"/>
<path class="st3" d="M197.78,160.45c-7.39,0.25-14.72-0.23-21.85-2.21c-10.06-2.8-19.34-7.17-27.52-13.81
	c-5.51-4.48-10.34-9.52-14.42-15.3c-0.15-0.21-0.24-0.47-0.36-0.71c0.25-0.07,0.5-0.2,0.74-0.19c7.04,0.39,14.03,1.34,20.76,3.39
	c7.65,2.33,14.55,6.25,21.06,10.93c8.24,5.92,16.82,11.32,26.46,14.78c1.57,0.57,3.18,1.04,4.76,1.57c0.23,0.08,0.42,0.29,0.62,0.45
	c-0.24,0.1-0.47,0.25-0.72,0.3C204.16,160.23,200.96,160.32,197.78,160.45z"/>
<path class="st4" d="M172.94,69.95c0.77,8.22-4.2,14.76-10.32,20.77c-0.33,0.32-0.62,0.59-0.88-0.04
	c-1.63-3.97-4.41-7.26-6.49-10.96c-4.63-8.22-4.1-16.08,1.18-23.76c3.09-4.49,4.65-9.44,4.41-14.92c-0.01-0.33,0.12-0.66,0.18-0.99
	c0.27,0.21,0.58,0.39,0.81,0.65c4.57,5.15,8.07,10.9,9.99,17.55C172.83,61.73,172.89,65.32,172.94,69.95z"/>
<path class="st4" d="M237.44,95.12c0.48,6.83-2.34,12.97-7.59,18.15c-0.96,0.94-1.8,2.02-2.6,3.1c-0.55,0.75-0.92,0.54-1.18-0.12
	c-1.83-4.65-5.14-8.47-7.26-12.98c-2.72-5.79-2.91-11.41-0.18-17.21c1.52-3.23,3.85-6,5-9.45c1.08-3.24,1.72-6.5,1.67-9.91
	c-0.01-0.36-0.18-0.9,0.3-1.04c0.4-0.11,0.52,0.39,0.73,0.67c2.66,3.37,5.4,6.68,7.29,10.56C236.34,82.43,237.51,88.32,237.44,95.12
	z"/>
<path class="st5" d="M263.82,143.68c-12.32-0.35-24.67,0.26-36.93-1.35c-8.54-1.13-17-2.8-24.98-6.13
	c-5.94-2.48-11.61-5.54-16.92-9.29c-9.03-6.38-18.32-12.37-29.17-15.35c-6.74-1.85-13.59-2.84-20.56-3.29
	c-3.79-0.24-7.56-0.45-11.35-0.42c-1.07,0.01-1.77-0.45-1.91-1.54c-0.14-1.09,0.26-1.87,1.44-2.09c3.07-0.56,6.13,0.02,9.18,0.13
	c4.84,0.19,9.69,0.63,14.49,1.32c10.13,1.45,19.54,4.9,28.28,10.32c5.18,3.21,10.17,6.7,15.31,9.95
	c10.04,6.35,20.96,10.42,32.84,11.88c8.08,0.99,16.15,1.71,24.31,1.72c8.54,0.02,17.09,0.33,25.64,0.15
	c1.27-0.03,2.08,0.58,2.12,1.88c0.04,1.43-0.8,2.08-2.18,2.09C270.21,143.69,267.01,143.68,263.82,143.68z"/>
<path class="st6" d="M244.53,150.71c-8.92,0.61-18.82-0.78-28.6-2.73c-7.08-1.41-14.06-3.47-20.49-6.93
	c-6.56-3.53-12.67-7.79-18.83-11.97c-9.05-6.13-18.88-10.38-29.72-12.11c-6.55-1.04-13.17-1.55-19.81-1.67
	c-1.39-0.02-2.78-0.23-4.17-0.21c-1.43,0.02-1.84-0.93-1.9-1.98c-0.06-1.05,0.74-1.7,1.76-1.7c3.26-0.01,6.52,0,9.77,0.15
	c5.73,0.27,11.43,0.94,17.07,2c10.34,1.94,19.81,5.93,28.53,11.83c6.45,4.36,12.76,8.96,19.83,12.37
	c8.97,4.33,18.43,6.72,28.29,7.96c9.83,1.23,19.67,1.02,29.52,1.02c1.44,0,2.17,0.69,2.17,1.94c-0.01,1.22-0.69,2.05-2.14,2.03
	C252.43,150.68,249.05,150.71,244.53,150.71z"/>
<path class="st7" d="M248.42,157.7c-11.69,0.19-23.34-0.3-34.77-3.08c-8.74-2.12-16.92-5.55-24.5-10.37
	c-5.63-3.59-11.16-7.35-16.8-10.92c-7.49-4.74-15.72-7.54-24.41-9.15c-7.78-1.44-15.62-2.1-23.53-1.97
	c-1.25,0.02-2.69,0.07-2.9-1.71c-0.15-1.34,0.51-1.98,1.87-2c10.55-0.16,21.05,0.31,31.29,3.05c8.19,2.19,15.87,5.55,22.95,10.31
	c6.27,4.21,12.39,8.68,19.11,12.19c9.24,4.82,19.09,7.61,29.41,8.84c8.99,1.07,18.02,1.35,27.07,1.19c1.03-0.02,2.07-0.2,3.1-0.15
	c1.2,0.06,2.1,0.7,2.08,1.99c-0.01,1.25-0.86,1.78-2.07,1.78C253.68,157.69,251.05,157.7,248.42,157.7z"/>
<path class="st8" d="M260.39,135.61c-9.36,0.17-16.3,0.11-23.23-0.26c-8.66-0.47-17.25-1.47-25.63-3.81
	c-10.85-3.03-20.6-8.25-29.76-14.72c-5.55-3.92-11.21-7.66-17.58-10.22c-6.69-2.68-13.59-4.44-20.74-5.31
	c-1.19-0.14-2.95-0.41-2.57-2.26c0.36-1.77,2.13-1.71,3.43-1.54c2.94,0.4,5.86,1.05,8.77,1.64c10.97,2.22,20.57,7.41,29.75,13.6
	c5.89,3.97,11.72,8.1,18.3,10.93c6.64,2.85,13.57,4.71,20.66,6.05c6.48,1.22,13.01,1.65,19.59,1.89c10.59,0.39,21.17,0.08,31.76,0.2
	c1.13,0.01,2.04,0.41,2.09,1.63c0.05,1.29-0.69,2.15-2.03,2.16C268.12,135.64,263.05,135.61,260.39,135.61z"/>
<path class="st9" d="M221.76,123.67c0.14,0.82-0.44,0.79-0.96,0.69c-8.81-1.81-17.19-4.73-24.89-9.46c-0.89-0.55-0.67-0.91-0.07-1.5
	c4.93-4.89,9.77-9.86,13.51-15.78c0.37-0.59,0.79-1.16,1.18-1.74c0.54,0.65,0.46,1.46,0.59,2.22c0.99,5.48,3.67,10.21,6.71,14.73
	C220.07,116.14,221.33,119.73,221.76,123.67z"/>
<path class="st10" d="M188.59,109c-0.01,1.04-0.51,0.57-0.95,0.28c-3.46-2.26-6.86-4.62-10.41-6.74c-3.61-2.16-7.41-4.01-11.29-5.66
	c-0.6-0.26-1.08-0.58-0.34-1.17c3.87-3.14,6.64-7.2,9.48-11.22c0.21-0.3,0.52-0.54,0.79-0.81c0.15,0.35,0.34,0.69,0.45,1.05
	c1.82,6.09,5.08,11.44,8.49,16.73c1.43,2.22,2.91,4.47,3.71,7.04C188.56,108.66,188.56,108.82,188.59,109z"/>
<path class="st11" d="M214.48,78.06c-0.06-7.22-1.4-14.19-4.04-20.91c-0.15-0.38-0.58-0.86-0.2-1.2c0.37-0.33,0.8,0.14,1.18,0.31
	c1.59,0.73,3.16,1.51,4.76,2.22c2.09,0.93,2.78,2.57,2.81,4.76c0.05,3.42,0.44,6.84-0.03,10.25c-0.46,3.31-1.44,6.43-3.72,9
	c-0.16,0.18-0.44,0.25-0.67,0.38c-0.03-0.22-0.08-0.43-0.08-0.65C214.48,80.83,214.48,79.44,214.48,78.06z"/>
<path class="st12" d="M178.31,65.63c-0.48-0.03-0.35-0.41-0.37-0.64c-0.18-2.21-0.26-4.44-1.23-6.49c-0.3-0.63,0.08-0.79,0.5-0.94
	c2.02-0.71,4.04-1.41,6.06-2.11c0.49-0.17,0.81-0.14,0.57,0.53c-1.22,3.45-3.55,6.28-5.29,9.43
	C178.5,65.51,178.38,65.57,178.31,65.63z"/>
<path class="st13" d="M154.04,87.79c0.71,0.73,1.39,1.34,1.98,2.03c1.37,1.62,1.78,3.92,3.66,5.2c0.07,0.05,0.08,0.2,0.11,0.3
	c-0.18,0.04-0.38,0.13-0.55,0.1c-1.28-0.26-2.56-0.54-3.82-0.85c-0.21-0.05-0.52-0.24-0.55-0.41c-0.38-1.98-0.72-3.96-1.05-5.95
	C153.8,88.11,153.94,87.98,154.04,87.79z"/>
<path class="st2" d="M382.54,109.96c0-2.28-0.01-4.55,0.01-6.83c0-0.29-0.16-0.72,0.25-0.82c0.19-0.04,0.46,0.21,0.68,0.36
	c5.25,3.5,10.9,5.28,17.25,4c1.62-0.33,2.44-1.41,2.43-3.04c-0.01-1.67-0.88-2.72-2.51-3.19c-4.18-1.2-8.73-1.36-12.42-3.99
	c-6.03-4.29-8.56-10.18-7.51-17.51c0.99-6.94,4.86-11.7,11.38-14.24c9.3-3.62,18.59-3.28,27.84,0.28c1.22,0.47,1.77,1.15,1.73,2.57
	c-0.11,4.19-0.03,8.38-0.05,12.58c0,0.37,0.22,0.9-0.26,1.06c-0.25,0.08-0.63-0.22-0.94-0.36c-5.14-2.4-10.38-4.24-16.2-2.98
	c-1.37,0.3-2.13,1.23-2.41,2.51c-0.32,1.47,0.43,2.45,1.71,3.06c3.15,1.51,6.64,1.87,9.91,3c6.1,2.11,9.5,6.35,10.32,12.61
	c0.68,5.19-0.09,10.21-3.32,14.51c-2.87,3.82-6.82,6.04-11.45,7.23c-5.59,1.44-11.22,1.18-16.83,0.48c-3.17-0.4-6.13-1.67-8.97-3.17
	c-0.57-0.3-0.68-0.81-0.67-1.41C382.56,114.43,382.54,112.2,382.54,109.96z"/>
<path class="st14" d="M334.61,96.5c0-7.9-0.16-15.81,0.06-23.71c0.14-5.08,4.58-8.92,9.66-8.92c9.23,0,18.46,0.01,27.69-0.02
	c0.99,0,1.28,0.26,1.27,1.27c-0.06,4.31-0.05,8.62,0,12.94c0.01,0.86-0.23,1.05-1.06,1.04c-5.63-0.04-11.27,0.01-16.9-0.04
	c-0.98-0.01-1.22,0.31-1.18,1.22c0.09,2.03-0.68,4.8,0.35,5.87c1,1.03,3.82,0.34,5.84,0.35c3.36,0.02,6.71,0.03,10.07-0.01
	c0.85-0.01,1.22,0.18,1.21,1.12c-0.04,4.31-0.04,8.62,0,12.94c0.01,0.86-0.34,0.95-1.06,0.95c-5.07-0.02-10.15,0.01-15.22-0.03
	c-0.83-0.01-1.08,0.2-1.07,1.05c0.04,5.47-0.01,10.94,0.04,16.41c0.01,1.19-0.34,1.61-1.57,1.6c-5.55-0.05-11.11-0.07-16.66,0.01
	c-1.35,0.02-1.59-0.49-1.59-1.64c0.03-7.47,0.01-14.93,0.01-22.4C334.54,96.5,334.58,96.5,334.61,96.5z"/>
<path class="st3" d="M289.89,88.18c0-7.66,0.01-15.33-0.02-22.99c0-0.91,0.19-1.23,1.18-1.22c5.83,0.05,11.67,0.05,17.5,0
	c1-0.01,1.14,0.33,1.14,1.21c-0.03,12.26,0,24.51-0.04,36.77c0,1.13,0.32,1.39,1.41,1.38c4.99-0.06,9.99,0,14.98-0.04
	c0.89-0.01,1.22,0.15,1.21,1.14c-0.06,5.03-0.05,10.06,0,15.09c0.01,0.93-0.29,1.1-1.14,1.1c-8.83-0.03-17.67-0.18-26.49,0.04
	c-5.48,0.13-9.68-4.24-9.71-9.83C289.86,103.27,289.89,95.72,289.89,88.18z"/>
<path class="st2" d="M33.19,61.84c2.56,0,5.12,0.1,7.67-0.04c1.38-0.08,1.76,0.49,1.97,1.68c1.45,8.25,2.95,16.49,4.44,24.73
	c0.09,0.52,0.28,1.03,0.42,1.54c0.51-0.37,0.45-0.96,0.56-1.48c1.42-6.56,2.46-13.24,4.37-19.67c2.22-7.48,9.14-10.24,15.93-6.85
	c2.99,1.5,4.38,4.31,5.11,7.43c1.54,6.59,3.04,13.18,4.56,19.77c0.08,0.33,0.25,0.64,0.38,0.96c0.12-0.33,0.29-0.64,0.35-0.98
	c1.6-8.7,3.2-17.4,4.77-26.11c0.11-0.61,0.36-0.78,0.94-0.77c5.75,0.02,11.51,0.03,17.26,0c1.45-0.01,0.88,0.96,0.76,1.56
	c-1.28,6.27-2.62,12.54-3.94,18.8c-1.82,8.67-3.69,17.33-5.43,26.02c-1.19,5.96-3.99,10.5-10.42,11.49
	c-6.31,0.97-12.83-1.33-14.4-9.1c-1.42-7.01-3.21-13.94-4.86-20.9c-0.08-0.35-0.32-0.67-0.48-1.01c-0.14,0.32-0.32,0.62-0.4,0.96
	c-1.61,7.04-3.25,14.07-4.79,21.13c-1.2,5.5-6.06,8.97-11.83,8.67c-3.73-0.19-6.93-1.17-9.43-4.05c-2.12-2.44-2.65-5.51-3.29-8.47
	c-2.66-12.32-5.18-24.66-7.76-36.99c-0.51-2.44-0.98-4.9-1.55-7.33c-0.19-0.81-0.06-1.03,0.79-1.02
	C27.67,61.87,30.43,61.84,33.19,61.84z"/>
</svg>
